G04 Layer_Physical_Order=2*
G04 Layer_Color=16711680*
%FSLAX25Y25*%
%MOIN*%
G70*
G01*
G75*
%ADD22C,0.01000*%
%ADD24C,0.01378*%
%ADD27C,0.05905*%
%ADD28R,0.05905X0.05905*%
%ADD29R,0.05905X0.05905*%
%ADD30C,0.02756*%
G36*
X253347Y24232D02*
X253288Y24285D01*
X253219Y24331D01*
X253140Y24373D01*
X253051Y24409D01*
X252953Y24439D01*
X252844Y24464D01*
X252726Y24483D01*
X252597Y24497D01*
X252311Y24508D01*
Y25886D01*
X252459Y25889D01*
X252726Y25911D01*
X252844Y25930D01*
X252953Y25955D01*
X253051Y25985D01*
X253140Y26021D01*
X253219Y26062D01*
X253288Y26109D01*
X253347Y26161D01*
Y24232D01*
D02*
G37*
G36*
X81358Y26109D02*
X81427Y26062D01*
X81506Y26021D01*
X81594Y25985D01*
X81693Y25955D01*
X81802Y25930D01*
X81920Y25911D01*
X82048Y25897D01*
X82335Y25886D01*
Y24508D01*
X82187Y24505D01*
X81920Y24483D01*
X81802Y24464D01*
X81693Y24439D01*
X81594Y24409D01*
X81506Y24373D01*
X81427Y24331D01*
X81358Y24285D01*
X81299Y24232D01*
Y26161D01*
X81358Y26109D01*
D02*
G37*
G36*
X302411Y93122D02*
X302333Y93179D01*
X302241Y93207D01*
X302135D01*
X302014Y93179D01*
X301880Y93122D01*
X301732Y93037D01*
X301569Y92924D01*
X301392Y92783D01*
X300996Y92415D01*
X300289Y93122D01*
X300487Y93327D01*
X300798Y93695D01*
X300911Y93858D01*
X300996Y94006D01*
X301053Y94140D01*
X301081Y94261D01*
Y94367D01*
X301053Y94459D01*
X300996Y94537D01*
X302411Y93122D01*
D02*
G37*
G36*
X271137Y55076D02*
X271047Y54979D01*
X270967Y54879D01*
X270896Y54775D01*
X270835Y54668D01*
X270783Y54557D01*
X270741Y54443D01*
X270709Y54325D01*
X270686Y54204D01*
X270673Y54079D01*
X270669Y53951D01*
X269305Y55315D01*
X269433Y55318D01*
X269558Y55331D01*
X269680Y55354D01*
X269797Y55387D01*
X269912Y55429D01*
X270022Y55480D01*
X270130Y55542D01*
X270233Y55612D01*
X270334Y55693D01*
X270430Y55783D01*
X271137Y55076D01*
D02*
G37*
G36*
X287795Y82084D02*
X287107Y81396D01*
X286776Y80900D01*
X286660Y80315D01*
Y73468D01*
X269619Y56428D01*
X269588Y56406D01*
X269553Y56387D01*
X269520Y56371D01*
X269486Y56358D01*
X269450Y56349D01*
X269411Y56341D01*
X269399Y56340D01*
X269291Y56362D01*
X268363Y56177D01*
X267577Y55651D01*
X267051Y54865D01*
X266867Y53937D01*
X267051Y53009D01*
X267577Y52223D01*
X268363Y51697D01*
X269291Y51512D01*
X270219Y51697D01*
X271006Y52223D01*
X271531Y53009D01*
X271716Y53937D01*
X271694Y54045D01*
X271696Y54056D01*
X271703Y54096D01*
X271713Y54132D01*
X271725Y54165D01*
X271741Y54199D01*
X271761Y54234D01*
X271782Y54265D01*
X287333Y69816D01*
X287795Y69625D01*
Y30709D01*
X90149D01*
Y107480D01*
X159013D01*
X159106Y107001D01*
X158144Y106602D01*
X157319Y105969D01*
X156685Y105143D01*
X156287Y104182D01*
X156151Y103150D01*
X156287Y102118D01*
X156685Y101156D01*
X157319Y100330D01*
X158144Y99697D01*
X159106Y99299D01*
X160138Y99163D01*
X161170Y99299D01*
X162131Y99697D01*
X162957Y100330D01*
X163591Y101156D01*
X163989Y102118D01*
X164125Y103150D01*
X163989Y104182D01*
X163591Y105143D01*
X162957Y105969D01*
X162131Y106602D01*
X161170Y107001D01*
X161263Y107480D01*
X183843D01*
X184138Y107102D01*
X184138Y106980D01*
Y99197D01*
X192043D01*
Y106980D01*
X192043Y107102D01*
X192338Y107480D01*
X273469D01*
X273875Y107209D01*
X274803Y107024D01*
X275731Y107209D01*
X276137Y107480D01*
X287795D01*
Y82084D01*
D02*
G37*
G36*
X194081Y146654D02*
X193952Y146650D01*
X193827Y146637D01*
X193706Y146614D01*
X193588Y146582D01*
X193474Y146540D01*
X193363Y146488D01*
X193256Y146427D01*
X193152Y146356D01*
X193052Y146275D01*
X192956Y146185D01*
X192248Y146892D01*
X192339Y146989D01*
X192419Y147089D01*
X192490Y147193D01*
X192551Y147300D01*
X192603Y147411D01*
X192645Y147525D01*
X192677Y147643D01*
X192700Y147765D01*
X192713Y147889D01*
X192717Y148018D01*
X194081Y146654D01*
D02*
G37*
G36*
X274498Y142623D02*
X274419Y142526D01*
X274350Y142424D01*
X274289Y142318D01*
X274238Y142207D01*
X274196Y142093D01*
X274164Y141973D01*
X274141Y141850D01*
X274127Y141722D01*
X274122Y141590D01*
X273122D01*
X273117Y141722D01*
X273103Y141850D01*
X273080Y141973D01*
X273048Y142093D01*
X273006Y142207D01*
X272955Y142318D01*
X272894Y142424D01*
X272825Y142526D01*
X272746Y142623D01*
X272657Y142717D01*
X274587D01*
X274498Y142623D01*
D02*
G37*
G36*
X275522Y110625D02*
X273715Y110295D01*
X273770Y110377D01*
X273808Y110460D01*
X273829Y110547D01*
X273833Y110635D01*
X273821Y110726D01*
X273792Y110819D01*
X273746Y110915D01*
X273685Y111013D01*
X273606Y111113D01*
X273510Y111215D01*
X274388Y111752D01*
X275522Y110625D01*
D02*
G37*
G36*
X136510Y128042D02*
X136608Y127963D01*
X136710Y127893D01*
X136816Y127833D01*
X136926Y127781D01*
X137041Y127740D01*
X137161Y127707D01*
X137284Y127684D01*
X137412Y127670D01*
X137544Y127665D01*
Y126665D01*
X137412Y126661D01*
X137284Y126647D01*
X137161Y126623D01*
X137041Y126591D01*
X136926Y126549D01*
X136816Y126498D01*
X136710Y126438D01*
X136608Y126368D01*
X136510Y126289D01*
X136417Y126201D01*
Y128130D01*
X136510Y128042D01*
D02*
G37*
%LPC*%
G36*
X121153Y46350D02*
X119328D01*
X119414Y45923D01*
X119939Y45136D01*
X120726Y44610D01*
X121153Y44525D01*
Y46350D01*
D02*
G37*
G36*
X235539Y40120D02*
Y38295D01*
X237364D01*
X237279Y38723D01*
X236754Y39510D01*
X235967Y40035D01*
X235539Y40120D01*
D02*
G37*
G36*
X281602Y38939D02*
Y37114D01*
X283427D01*
X283342Y37542D01*
X282817Y38329D01*
X282030Y38854D01*
X281602Y38939D01*
D02*
G37*
G36*
X234539Y40120D02*
X234111Y40035D01*
X233325Y39510D01*
X232799Y38723D01*
X232714Y38295D01*
X234539D01*
Y40120D01*
D02*
G37*
G36*
X121153Y49176D02*
X120726Y49090D01*
X119939Y48565D01*
X119414Y47778D01*
X119328Y47350D01*
X121153D01*
Y49176D01*
D02*
G37*
G36*
X122153D02*
Y47350D01*
X123979D01*
X123893Y47778D01*
X123368Y48565D01*
X122581Y49090D01*
X122153Y49176D01*
D02*
G37*
G36*
X123979Y46350D02*
X122153D01*
Y44525D01*
X122581Y44610D01*
X123368Y45136D01*
X123893Y45923D01*
X123979Y46350D01*
D02*
G37*
G36*
X141339Y98881D02*
X140411Y98697D01*
X139624Y98171D01*
X139099Y97385D01*
X138914Y96457D01*
X139099Y95529D01*
X139624Y94742D01*
X139716Y94681D01*
X139723Y94672D01*
X139745Y94639D01*
X139764Y94607D01*
X139779Y94574D01*
X139792Y94539D01*
X139802Y94500D01*
X139809Y94464D01*
Y70866D01*
X139926Y70281D01*
X140257Y69785D01*
X161733Y48308D01*
X162230Y47977D01*
X162815Y47860D01*
X178499D01*
X178536Y47853D01*
X178575Y47843D01*
X178610Y47830D01*
X178642Y47815D01*
X178675Y47797D01*
X178708Y47774D01*
X178717Y47767D01*
X178778Y47675D01*
X179564Y47150D01*
X180492Y46965D01*
X181420Y47150D01*
X182206Y47675D01*
X182732Y48462D01*
X182917Y49390D01*
X182732Y50318D01*
X182206Y51104D01*
X181420Y51630D01*
X180492Y51814D01*
X179564Y51630D01*
X178778Y51104D01*
X178717Y51012D01*
X178708Y51005D01*
X178675Y50983D01*
X178642Y50964D01*
X178610Y50949D01*
X178575Y50937D01*
X178536Y50926D01*
X178499Y50919D01*
X163449D01*
X142868Y71500D01*
Y94464D01*
X142875Y94500D01*
X142885Y94539D01*
X142898Y94574D01*
X142913Y94607D01*
X142932Y94639D01*
X142954Y94672D01*
X142961Y94681D01*
X143053Y94742D01*
X143579Y95529D01*
X143763Y96457D01*
X143579Y97385D01*
X143053Y98171D01*
X142266Y98697D01*
X141339Y98881D01*
D02*
G37*
G36*
X280602Y36114D02*
X278777D01*
X278862Y35686D01*
X279388Y34900D01*
X280174Y34374D01*
X280602Y34289D01*
Y36114D01*
D02*
G37*
G36*
X283427D02*
X281602D01*
Y34289D01*
X282030Y34374D01*
X282817Y34900D01*
X283342Y35686D01*
X283427Y36114D01*
D02*
G37*
G36*
X101862D02*
X100037D01*
X100122Y35686D01*
X100648Y34900D01*
X101434Y34374D01*
X101862Y34289D01*
Y36114D01*
D02*
G37*
G36*
X104687D02*
X102862D01*
Y34289D01*
X103290Y34374D01*
X104077Y34900D01*
X104602Y35686D01*
X104687Y36114D01*
D02*
G37*
G36*
X234539Y37295D02*
X232714D01*
X232799Y36867D01*
X233325Y36081D01*
X234111Y35555D01*
X234539Y35470D01*
Y37295D01*
D02*
G37*
G36*
X102862Y38939D02*
Y37114D01*
X104687D01*
X104602Y37542D01*
X104077Y38329D01*
X103290Y38854D01*
X102862Y38939D01*
D02*
G37*
G36*
X280602D02*
X280174Y38854D01*
X279388Y38329D01*
X278862Y37542D01*
X278777Y37114D01*
X280602D01*
Y38939D01*
D02*
G37*
G36*
X237364Y37295D02*
X235539D01*
Y35470D01*
X235967Y35555D01*
X236754Y36081D01*
X237279Y36867D01*
X237364Y37295D01*
D02*
G37*
G36*
X101862Y38939D02*
X101434Y38854D01*
X100648Y38329D01*
X100122Y37542D01*
X100037Y37114D01*
X101862D01*
Y38939D01*
D02*
G37*
G36*
X254331Y91401D02*
X253403Y91216D01*
X252616Y90691D01*
X252091Y89904D01*
X251906Y88976D01*
X251928Y88868D01*
X251926Y88857D01*
X251919Y88818D01*
X251909Y88782D01*
X251897Y88748D01*
X251881Y88714D01*
X251861Y88679D01*
X251840Y88649D01*
X219052Y55860D01*
X199630D01*
X199594Y55867D01*
X199555Y55878D01*
X199520Y55890D01*
X199487Y55905D01*
X199455Y55924D01*
X199422Y55946D01*
X199413Y55954D01*
X199352Y56045D01*
X198566Y56571D01*
X197638Y56755D01*
X196710Y56571D01*
X195923Y56045D01*
X195398Y55259D01*
X195213Y54331D01*
X195398Y53403D01*
X195923Y52616D01*
X196710Y52091D01*
X197638Y51906D01*
X198566Y52091D01*
X199352Y52616D01*
X199413Y52708D01*
X199422Y52715D01*
X199455Y52738D01*
X199487Y52756D01*
X199520Y52771D01*
X199555Y52784D01*
X199594Y52794D01*
X199630Y52801D01*
X219685D01*
X220270Y52918D01*
X220766Y53249D01*
X254003Y86486D01*
X254034Y86507D01*
X254069Y86527D01*
X254102Y86542D01*
X254136Y86555D01*
X254172Y86565D01*
X254211Y86572D01*
X254223Y86573D01*
X254331Y86552D01*
X255258Y86736D01*
X256045Y87262D01*
X256571Y88049D01*
X256755Y88976D01*
X256571Y89904D01*
X256045Y90691D01*
X255258Y91216D01*
X254331Y91401D01*
D02*
G37*
G36*
X223622Y91795D02*
X222694Y91610D01*
X221908Y91084D01*
X221846Y90993D01*
X221838Y90986D01*
X221805Y90963D01*
X221772Y90945D01*
X221740Y90930D01*
X221705Y90917D01*
X221666Y90906D01*
X221629Y90899D01*
X205512D01*
X204926Y90783D01*
X204430Y90452D01*
X189076Y75097D01*
X188744Y74601D01*
X188628Y74016D01*
Y51205D01*
X188621Y51169D01*
X188611Y51130D01*
X188598Y51095D01*
X188583Y51062D01*
X188564Y51030D01*
X188542Y50997D01*
X188535Y50988D01*
X188443Y50927D01*
X187917Y50140D01*
X187733Y49213D01*
X187917Y48285D01*
X188443Y47498D01*
X189230Y46973D01*
X190157Y46788D01*
X191085Y46973D01*
X191872Y47498D01*
X192397Y48285D01*
X192582Y49213D01*
X192397Y50140D01*
X191872Y50927D01*
X191780Y50988D01*
X191773Y50997D01*
X191751Y51030D01*
X191732Y51062D01*
X191717Y51095D01*
X191704Y51130D01*
X191694Y51169D01*
X191687Y51205D01*
Y73382D01*
X206145Y87841D01*
X221629D01*
X221666Y87834D01*
X221705Y87823D01*
X221740Y87810D01*
X221772Y87795D01*
X221805Y87777D01*
X221838Y87754D01*
X221846Y87747D01*
X221908Y87656D01*
X222694Y87130D01*
X223622Y86945D01*
X224550Y87130D01*
X225337Y87656D01*
X225862Y88442D01*
X226047Y89370D01*
X225862Y90298D01*
X225337Y91084D01*
X224550Y91610D01*
X223622Y91795D01*
D02*
G37*
G36*
X172335Y79884D02*
X171907Y79799D01*
X171120Y79273D01*
X170595Y78487D01*
X170510Y78059D01*
X172335D01*
Y79884D01*
D02*
G37*
G36*
X173335D02*
Y78059D01*
X175160D01*
X175075Y78487D01*
X174549Y79273D01*
X173763Y79799D01*
X173335Y79884D01*
D02*
G37*
G36*
X103437Y99963D02*
X103009Y99878D01*
X102223Y99352D01*
X101697Y98566D01*
X101612Y98138D01*
X103437D01*
Y99963D01*
D02*
G37*
G36*
X104437D02*
Y98138D01*
X106262D01*
X106177Y98566D01*
X105651Y99352D01*
X104865Y99878D01*
X104437Y99963D01*
D02*
G37*
G36*
X103437Y97138D02*
X101612D01*
X101697Y96710D01*
X102223Y95923D01*
X103009Y95398D01*
X103437Y95313D01*
Y97138D01*
D02*
G37*
G36*
X106262D02*
X104437D01*
Y95313D01*
X104865Y95398D01*
X105651Y95923D01*
X106177Y96710D01*
X106262Y97138D01*
D02*
G37*
G36*
X175160Y77059D02*
X173335D01*
Y75234D01*
X173763Y75319D01*
X174549Y75845D01*
X175075Y76631D01*
X175160Y77059D01*
D02*
G37*
G36*
X255081Y61311D02*
X253256D01*
Y59486D01*
X253684Y59571D01*
X254470Y60097D01*
X254996Y60883D01*
X255081Y61311D01*
D02*
G37*
G36*
X252256D02*
X250431D01*
X250516Y60883D01*
X251042Y60097D01*
X251828Y59571D01*
X252256Y59486D01*
Y61311D01*
D02*
G37*
G36*
Y64136D02*
X251828Y64051D01*
X251042Y63525D01*
X250516Y62739D01*
X250431Y62311D01*
X252256D01*
Y64136D01*
D02*
G37*
G36*
X172335Y77059D02*
X170510D01*
X170595Y76631D01*
X171120Y75845D01*
X171907Y75319D01*
X172335Y75234D01*
Y77059D01*
D02*
G37*
G36*
X253256Y64136D02*
Y62311D01*
X255081D01*
X254996Y62739D01*
X254470Y63525D01*
X253684Y64051D01*
X253256Y64136D01*
D02*
G37*
%LPD*%
G36*
X179508Y48425D02*
X179415Y48513D01*
X179317Y48592D01*
X179215Y48662D01*
X179109Y48722D01*
X178999Y48774D01*
X178884Y48815D01*
X178765Y48848D01*
X178641Y48871D01*
X178513Y48885D01*
X178381Y48890D01*
Y49890D01*
X178513Y49894D01*
X178641Y49908D01*
X178765Y49932D01*
X178884Y49964D01*
X178999Y50006D01*
X179109Y50057D01*
X179215Y50117D01*
X179317Y50187D01*
X179415Y50266D01*
X179508Y50354D01*
Y48425D01*
D02*
G37*
G36*
X142215Y95379D02*
X142136Y95282D01*
X142066Y95180D01*
X142006Y95074D01*
X141955Y94963D01*
X141913Y94848D01*
X141880Y94729D01*
X141857Y94606D01*
X141843Y94478D01*
X141839Y94346D01*
X140839D01*
X140834Y94478D01*
X140820Y94606D01*
X140797Y94729D01*
X140764Y94848D01*
X140722Y94963D01*
X140671Y95074D01*
X140611Y95180D01*
X140541Y95282D01*
X140462Y95379D01*
X140374Y95473D01*
X142303D01*
X142215Y95379D01*
D02*
G37*
G36*
X198715Y55207D02*
X198813Y55128D01*
X198915Y55058D01*
X199021Y54998D01*
X199131Y54947D01*
X199246Y54905D01*
X199365Y54873D01*
X199489Y54849D01*
X199617Y54835D01*
X199749Y54831D01*
Y53831D01*
X199617Y53826D01*
X199489Y53812D01*
X199365Y53789D01*
X199246Y53756D01*
X199131Y53715D01*
X199021Y53663D01*
X198915Y53603D01*
X198813Y53533D01*
X198715Y53454D01*
X198622Y53366D01*
Y55295D01*
X198715Y55207D01*
D02*
G37*
G36*
X254317Y87599D02*
X254189Y87595D01*
X254064Y87582D01*
X253942Y87559D01*
X253825Y87527D01*
X253710Y87485D01*
X253600Y87433D01*
X253492Y87372D01*
X253389Y87301D01*
X253288Y87220D01*
X253192Y87130D01*
X252485Y87837D01*
X252575Y87934D01*
X252655Y88034D01*
X252726Y88138D01*
X252787Y88245D01*
X252839Y88356D01*
X252881Y88470D01*
X252913Y88588D01*
X252936Y88709D01*
X252949Y88834D01*
X252953Y88963D01*
X254317Y87599D01*
D02*
G37*
G36*
X190662Y51191D02*
X190676Y51064D01*
X190699Y50940D01*
X190732Y50821D01*
X190774Y50706D01*
X190825Y50595D01*
X190885Y50489D01*
X190955Y50387D01*
X191034Y50290D01*
X191122Y50197D01*
X189193D01*
X189281Y50290D01*
X189360Y50387D01*
X189430Y50489D01*
X189490Y50595D01*
X189541Y50706D01*
X189583Y50821D01*
X189616Y50940D01*
X189639Y51064D01*
X189653Y51191D01*
X189657Y51323D01*
X190657D01*
X190662Y51191D01*
D02*
G37*
G36*
X222638Y88406D02*
X222545Y88494D01*
X222447Y88573D01*
X222345Y88642D01*
X222239Y88703D01*
X222129Y88754D01*
X222014Y88796D01*
X221895Y88828D01*
X221771Y88851D01*
X221643Y88865D01*
X221511Y88870D01*
Y89870D01*
X221643Y89875D01*
X221771Y89889D01*
X221895Y89912D01*
X222014Y89944D01*
X222129Y89986D01*
X222239Y90037D01*
X222345Y90098D01*
X222447Y90167D01*
X222545Y90246D01*
X222638Y90335D01*
Y88406D01*
D02*
G37*
D22*
X273622Y111811D02*
Y143701D01*
Y111811D02*
X274803Y110630D01*
X141339Y70866D02*
Y96457D01*
Y70866D02*
X162815Y49390D01*
X180492D01*
X205512Y89370D02*
X223622D01*
X190157Y74016D02*
X205512Y89370D01*
X190157Y49213D02*
Y74016D01*
X197638Y54331D02*
X219685D01*
X254331Y88976D01*
X173228Y127165D02*
X194095Y148031D01*
X135433Y127165D02*
X173228D01*
X269291Y53937D02*
X288189Y72835D01*
Y80315D01*
X303937Y96063D01*
D24*
X80315Y25197D02*
X254331D01*
D27*
X303937Y76063D02*
D03*
Y86063D02*
D03*
X23425Y148484D02*
D03*
X303701Y184646D02*
D03*
X169134Y15748D02*
D03*
X160138Y103150D02*
D03*
D28*
X303937Y96063D02*
D03*
X23425Y138484D02*
D03*
D29*
X293701Y184646D02*
D03*
X179134Y15748D02*
D03*
X188091Y103150D02*
D03*
D30*
X273622Y143701D02*
D03*
X274803Y109449D02*
D03*
X172835Y77559D02*
D03*
X252756Y61811D02*
D03*
X281102Y36614D02*
D03*
X254331Y25197D02*
D03*
X103937Y97638D02*
D03*
X194095Y148031D02*
D03*
X235039Y37795D02*
D03*
X141339Y96457D02*
D03*
X254331Y88976D02*
D03*
X80315Y25197D02*
D03*
X223622Y89370D02*
D03*
X102362Y36614D02*
D03*
X180492Y49390D02*
D03*
X190157Y49213D02*
D03*
X197638Y54331D02*
D03*
X135433Y127165D02*
D03*
X121653Y46850D02*
D03*
X269291Y53937D02*
D03*
M02*
