%FSDAX24Y24*%
%MOIN*%
%SFA1B1*%

%IPPOS*%
%ADD9500C,0.028000*%
%ADD9501C,0.033500*%
%ADD9502C,0.035400*%
%ADD9503C,0.047200*%
%ADD9504C,0.075000*%
%LNrev2-1*%
%LPD*%
G54D9500*
X032126Y020118D03*
Y020803D03*
X032283Y021654D03*
X032126Y023960D03*
Y024646D03*
X033740Y025827D03*
X034488Y025394D03*
X036063Y024646D03*
X035945Y027402D03*
Y028622D03*
X032835Y028937D03*
X031457Y029094D03*
X033701Y030197D03*
X033307Y030906D03*
X040787Y028898D03*
Y028189D03*
X041260Y025394D03*
X041102Y019449D03*
Y018740D03*
X041811D03*
Y019449D03*
X030866Y021654D03*
X030787Y024370D03*
X029982D03*
X029803Y027047D03*
X029252Y027520D03*
X030039Y027874D03*
X030512Y030551D03*
X029409Y030669D03*
X027520Y031142D03*
Y029488D03*
X025236Y030315D03*
Y027047D03*
X026063D03*
X027126Y026339D03*
Y025499D03*
Y024501D03*
Y023661D03*
X025866Y023268D03*
Y022441D03*
Y021732D03*
Y020906D03*
X028504Y018622D03*
X029213D03*
G54D9501*
X026687Y019720D03*
X027687D03*
G54D9502*
X024134Y020913D03*
Y021913D03*
Y022913D03*
Y023913D03*
X025945Y025024D03*
Y026024D03*
X030929Y031575D03*
X031929D03*
G54D9503*
X033807Y023976D03*
X037925D03*
X037272Y029646D03*
X041390D03*
Y031260D03*
X037272D03*
G54D9504*
X044136Y024213D03*
X044134Y026181D03*
X044136Y028740D03*
X044134Y030709D03*
X029409Y017050D03*
X027441Y017047D03*
M02*