Added Component: Designator=R9(0805R-GENERIC)
Add component. Clean all parameters for all variants
Added Pin To Net: NetName=GND Pin=R9-1
Added Pin To Net: NetName=PGND Pin=R9-2
Added Member To Class: ClassName=MAX1737 Member=Component R9 0R
