Replace Part *MAX1737 MAX1737 in C:\Users\William\Desktop\gitHub\MAX1737_charger\MAX1737.SchDoc with MAX1737 from MAX1737.SchLib
Replace Part C1 0805C-100nF-25V-X7R-MUR in C:\Users\William\Desktop\gitHub\MAX1737_charger\MAX1737.SchDoc with 0805C-100nF-25V-X7R-MUR from vh_altium_library.intLib
Replace Part C2 0805C-100nF-25V-X7R-MUR in C:\Users\William\Desktop\gitHub\MAX1737_charger\MAX1737.SchDoc with 0805C-100nF-25V-X7R-MUR from vh_altium_library.intLib
Replace Part C3 0805C-100nF-25V-X7R-MUR in C:\Users\William\Desktop\gitHub\MAX1737_charger\MAX1737.SchDoc with 0805C-100nF-25V-X7R-MUR from vh_altium_library.intLib
Replace Part C4 0805C-100nF-25V-X7R-MUR in C:\Users\William\Desktop\gitHub\MAX1737_charger\MAX1737.SchDoc with 0805C-100nF-25V-X7R-MUR from vh_altium_library.intLib
Replace Part C5 0805C-100nF-25V-X7R-MUR in C:\Users\William\Desktop\gitHub\MAX1737_charger\MAX1737.SchDoc with 0805C-100nF-25V-X7R-MUR from vh_altium_library.intLib
Replace Part C6 0805C-100nF-25V-X7R-MUR in C:\Users\William\Desktop\gitHub\MAX1737_charger\MAX1737.SchDoc with 0805C-100nF-25V-X7R-MUR from vh_altium_library.intLib
Replace Part C7 0805C-100nF-25V-X7R-MUR in C:\Users\William\Desktop\gitHub\MAX1737_charger\MAX1737.SchDoc with 0805C-100nF-25V-X7R-MUR from vh_altium_library.intLib
Replace Part C8 0805C-100nF-25V-X7R-MUR in C:\Users\William\Desktop\gitHub\MAX1737_charger\MAX1737.SchDoc with 0805C-100nF-25V-X7R-MUR from vh_altium_library.intLib
Replace Part C9 0805C-100nF-25V-X7R-MUR in C:\Users\William\Desktop\gitHub\MAX1737_charger\MAX1737.SchDoc with 0805C-100nF-25V-X7R-MUR from vh_altium_library.intLib
Replace Part C10 0805C-100nF-25V-X7R-MUR in C:\Users\William\Desktop\gitHub\MAX1737_charger\MAX1737.SchDoc with 0805C-100nF-25V-X7R-MUR from vh_altium_library.intLib
Replace Part C11 0805C-100nF-25V-X7R-MUR in C:\Users\William\Desktop\gitHub\MAX1737_charger\MAX1737.SchDoc with 0805C-100nF-25V-X7R-MUR from vh_altium_library.intLib
Replace Part C12 0805C-100nF-25V-X7R-MUR in C:\Users\William\Desktop\gitHub\MAX1737_charger\MAX1737.SchDoc with 0805C-100nF-25V-X7R-MUR from vh_altium_library.intLib
Replace Part C13 0805C-100nF-25V-X7R-MUR in C:\Users\William\Desktop\gitHub\MAX1737_charger\MAX1737.SchDoc with 0805C-100nF-25V-X7R-MUR from vh_altium_library.intLib
Replace Part C14 0805C-100nF-25V-X7R-MUR in C:\Users\William\Desktop\gitHub\MAX1737_charger\MAX1737.SchDoc with 0805C-100nF-25V-X7R-MUR from vh_altium_library.intLib
Replace Part C15 0805C-100nF-25V-X7R-MUR in C:\Users\William\Desktop\gitHub\MAX1737_charger\MAX1737.SchDoc with 0805C-100nF-25V-X7R-MUR from vh_altium_library.intLib
Replace Part C16 0805C-100nF-25V-X7R-MUR in C:\Users\William\Desktop\gitHub\MAX1737_charger\MAX1737.SchDoc with 0805C-100nF-25V-X7R-MUR from vh_altium_library.intLib
Replace Part D1 Diode 11DQ03 in C:\Users\William\Desktop\gitHub\MAX1737_charger\MAX1737.SchDoc with Diode 11DQ03 from Miscellaneous Devices.IntLib
Replace Part D2 Diode 11DQ03 in C:\Users\William\Desktop\gitHub\MAX1737_charger\MAX1737.SchDoc with Diode 11DQ03 from Miscellaneous Devices.IntLib
Replace Part D3 Diode 11DQ03 in C:\Users\William\Desktop\gitHub\MAX1737_charger\MAX1737.SchDoc with Diode 11DQ03 from Miscellaneous Devices.IntLib
Replace Part K1 PRKR2 in C:\Users\William\Desktop\gitHub\MAX1737_charger\MAX1737.SchDoc with PRKR2 from vh_altium_library.intLib
Replace Part K2 PRKR2 in C:\Users\William\Desktop\gitHub\MAX1737_charger\MAX1737.SchDoc with PRKR2 from vh_altium_library.intLib
Replace Part K3 PRKR2 in C:\Users\William\Desktop\gitHub\MAX1737_charger\MAX1737.SchDoc with PRKR2 from vh_altium_library.intLib
Replace Part L1 SRP1770TA in C:\Users\William\Desktop\gitHub\MAX1737_charger\MAX1737.SchDoc with SRP1770TA from MAX1737_components.SchLib
Replace Part P1 Header 4 in C:\Users\William\Desktop\gitHub\MAX1737_charger\MAX1737.SchDoc with Header 4 from Miscellaneous Connectors.IntLib
Replace Part Q1 AO4484 in C:\Users\William\Desktop\gitHub\MAX1737_charger\MAX1737.SchDoc with AO4484 from MAX1737_components.SchLib
Replace Part Q2 AO4484 in C:\Users\William\Desktop\gitHub\MAX1737_charger\MAX1737.SchDoc with AO4484 from MAX1737_components.SchLib
Replace Part R1 0805R-0R in C:\Users\William\Desktop\gitHub\MAX1737_charger\MAX1737.SchDoc with 0805R-0R from vh_altium_library.intLib
Replace Part R2 0805R-0R in C:\Users\William\Desktop\gitHub\MAX1737_charger\MAX1737.SchDoc with 0805R-0R from vh_altium_library.intLib
Replace Part R3 0805R-10K in C:\Users\William\Desktop\gitHub\MAX1737_charger\MAX1737.SchDoc with 0805R-10K from vh_altium_library.intLib
Replace Part R4 0805R-TBD in C:\Users\William\Desktop\gitHub\MAX1737_charger\MAX1737.SchDoc with 0805R-TBD from vh_altium_library.intLib
Replace Part R5 0805R-TBD in C:\Users\William\Desktop\gitHub\MAX1737_charger\MAX1737.SchDoc with 0805R-TBD from vh_altium_library.intLib
Replace Part R6 0805R-10K in C:\Users\William\Desktop\gitHub\MAX1737_charger\MAX1737.SchDoc with 0805R-10K from vh_altium_library.intLib
Replace Part R7 0805R-10K in C:\Users\William\Desktop\gitHub\MAX1737_charger\MAX1737.SchDoc with 0805R-10K from vh_altium_library.intLib
Replace Part R8 0805R-10K in C:\Users\William\Desktop\gitHub\MAX1737_charger\MAX1737.SchDoc with 0805R-10K from vh_altium_library.intLib
Replace Part T1 NTCLE100E3103JB0 in C:\Users\William\Desktop\gitHub\MAX1737_charger\MAX1737.SchDoc with NTCLE100E3103JB0 from MAX1737_components.SchLib
