Removed Pin From Net: NetName=I2C_SDA Pin=U1-23
Removed Pin From Net: NetName=I2C_SCL Pin=U1-24
Removed Pin From Net: NetName=GND Pin=U1-29
Removed Pin From Net: NetName=VCC_BAT Pin=U1-30
Change Component DesignItemId : Designator=U1 Old DesignItemId=Arduino Nano (DIP 30) New DesignItemId=Arduino Pro Micro
Change Component Footprint: Designator=U1 Old Footprint=Arduino Nano (DIP 30) New Footprint=Arduino Pro Micro (DIP 24)
Change Component Comment : Designator=U1 Old Comment=Arduino Nano New Comment=Arduino Pro Micro
Added Pin To Net: NetName=GND Pin=U1-3
Added Pin To Net: NetName=I2C_SDA Pin=U1-5
Added Pin To Net: NetName=I2C_SCL Pin=U1-6
Added Pin To Net: NetName=GND Pin=U1-23
Added Pin To Net: NetName=VCC_BAT Pin=U1-24
