Added Component: Designator=D3(0805 LED)
Added Component: Designator=R7(0805R-100)
Added Pin To Net: NetName=SYSTEM_LOW Pin=D3-K
Added Pin To Net: NetName=5V (ARD) Pin=R7-1
Added Pin To Net: NetName=LED_3 Pin=D3-A
Added Pin To Net: NetName=LED_3 Pin=R7-2
Added Net: Name=LED_3
Added Member To Class: ClassName=PC-104 bat_ctrl Member=Component D3 LED
Added Member To Class: ClassName=PC-104 bat_ctrl Member=Component R7 100R
