Added Component: Designator=B1(Keystone 1049 (18650 Dual Holder))
Added Pin To Net: NetName=VCC_BAT Pin=B1-1
Added Pin To Net: NetName=BAT_INTERCONNECT Pin=B1-2
Added Pin To Net: NetName=BAT_INTERCONNECT Pin=B1-3
Added Pin To Net: NetName=GND Pin=B1-4
Added Member To Class: ClassName=PC-104 bat_ctrl Member=Component B1 Battery Holder
Added Member To Class: ClassName=PC-104 bat_ctrl Member=Component H1 26X2 Header
Added Member To Class: ClassName=PC-104 bat_ctrl Member=Component H2 26X2 Header
Added Member To Class: ClassName=PC-104 bat_ctrl Member=Component P1 Header 2
Added Member To Class: ClassName=PC-104 bat_ctrl Member=Component U1 Arduino Nano
