Removed Pin From Net: NetName=GND Pin=U1-3
Removed Pin From Net: NetName=I2C_SDA Pin=U1-5
Removed Pin From Net: NetName=I2C_SCL Pin=U1-6
Removed Pin From Net: NetName=GND Pin=U1-23
Removed Pin From Net: NetName=VCC_BAT Pin=U1-24
Change Component DesignItemId : Designator=U1 Old DesignItemId=Arduino Pro Micro New DesignItemId=Arduino Nano (DIP 30)
Change Component Footprint: Designator=U1 Old Footprint=Arduino Pro Micro (DIP 24) New Footprint=Arduino Nano (DIP 30)
Change Component Comment : Designator=U1 Old Comment=Arduino Pro Micro New Comment=Arduino Nano
Added Component: Designator=U2(USDFOOTPRINT)
Added Pin To Net: NetName=I2C_SDA Pin=U1-23
Added Pin To Net: NetName=I2C_SCL Pin=U1-24
Added Pin To Net: NetName=GND Pin=U1-29
Added Pin To Net: NetName=VCC_BAT Pin=U1-30
Added Pin To Net: NetName=GND Pin=U2-0
Added Pin To Net: NetName=3V3 (ARD) Pin=U1-17
Added Net: Name=3V3 (ARD)
Added Pin To Net: NetName=3V3 (SMPS) Pin=U1-20
Added Net: Name=3V3 (SMPS)
Added Pin To Net: NetName=5V (ARD) Pin=U1-27
Added Pin To Net: NetName=5V (ARD) Pin=U2-1
Added Net: Name=5V (ARD)
Added Pin To Net: NetName=5V (SMPS) Pin=U1-19
Added Net: Name=5V (SMPS)
Added Pin To Net: NetName=MISO Pin=U1-15
Added Pin To Net: NetName=MISO Pin=U2-2
Added Net: Name=MISO
Added Pin To Net: NetName=MOSI Pin=U1-14
Added Pin To Net: NetName=MOSI Pin=U2-3
Added Net: Name=MOSI
Added Pin To Net: NetName=SCK Pin=U1-16
Added Pin To Net: NetName=SCK Pin=U2-4
Added Net: Name=SCK
Added Pin To Net: NetName=SS Pin=U1-13
Added Pin To Net: NetName=SS Pin=U2-5
Added Net: Name=SS
Added Member To Class: ClassName=PC-104 bat_ctrl Member=Component U2 uSD
